Tipo de item,Chave da item,Resolucao,ID da item,Resumo,Assignee,Prioridade,Status,Criado
Service Request,RMSR-9,"It works!_x000D_
Claudemir_x000D_
_x000D_
Em 10 de jul de 2017 5:00 PM, ""Gabriel Ferreira (JIRA)"" <_x000D_
_x000D_
",24932,teste,leandro.moraes,Medium,Closed,27/Jun/17 4:59 PM
